Build|unroll|% ave.dev.|jump-table|% ave.dev.|hash|% ave.dev.|Mean rate (state-changes/sec).
1\n2242\nGNUv7.2.0|30725483|0.03|||20717645|0.05
2\n2407\nGNUv7.3.0|8409117|0.048|6259501|0.048|6349166|0.048
3\n2278\nGNUv8.1.0|12991489|0.048|||11299626|0.048
4\n2385\nGNUv8.2.0|6406811|0.049|6123450|0.048|6208320|0.048
5\n2397\nGNUv8.3.0|6412001|0.049|6120101|0.048|6211061|0.048
6\n2407\nClangv6.0.1|6456010|0.048|||6171643|0.048
7\n2407\nClangv7.0.1|6451797|0.048|||6182482|0.048
8\n2407\nClangv8.0.0|6546980|0.048|||6276424|0.048
9\nrelease_580_101_g19d00_dirty\nGNUv11.1.0|71368352|0.049|63699516|0.049|138823710|0.048
