Build|spinlock|% ave.dev.|POSIX mutex|% ave.dev.|std::mutex|% ave.dev.|boost::mutex|% ave.dev.|Operation (usec)
1\n2963\nGNUv9.3.0\nyield|0.050098|0.15|0.209598|0.029|0.20567|0.065|0.18437|0.065
2\n2963\nClangv9.0.1\nyield|0.0549343|0.04|0.148705|0.023|0.183178|0.033|0.21598|0.045
3\n2963\nClangv9.0.1\npause|0.105981|0.05|0.127508|0.037|0.123082|0.031|0.151145|0.02
