Build|jmmcg::stack_string small string|% ave.dev.|std::string small string|% ave.dev.|__gnucxx::__vstring small string|% ave.dev.|jmmcg::stack_string big string|% ave.dev.|std::string big string|% ave.dev.|__gnucxx::__vstring big string|% ave.dev.|Mean rate (operations/sec).
1\n1414\ng++v4.7.3|55254120|0.04|10138325|0.04|39441839|0.04|8726725|0.04|10000563|0.04|10073089|0.04
2\n1627\ng++v4.8.4|67709907|0.05|10883866|0.04|24003363|0.05|7656490|0.06|10534818|0.05|7846254|0.05
3\n1643\ng++v4.8.4|64933195|0.04|10753837|0.04|26471226|0.04|7479894|0.04|10532715|0.04|7824633|0.04
4\n1686\ng++v5.1.0|75244199|0.04|25579717|0.04|26009902|0.04|7599226|0.04|7658556|0.04|7602693|0.04
5\n1696\ng++v4.8.4|56443578|0.04|10956253|0.04|28274452|0.04|7603744|0.04|1047713|0.04|7798075|0.04
6\n1719\ng++v4.9.3|10388847380|0.04|10499634|0.04|26807621|0.04|9528411|0.04|10127637|0.04|7750223|0.04
7\n1735\ng++v4.8.4|10381817277|0.04|10935314|0.04|40405065|0.04|10090331|0.04|10595531|0.04|10554696|0.04
8\n1776\ng++v4.8.5\nNoSymbols|10389711458|0.04|10417133|0.04|43580894|0.04|9661230|0.04|10299892|0.04|9738376|0.04
9\n1916\ng++v5.3.0|1705964383360998|0.04|33212908|0.06|41107847|0.04|10912758|0.04|9155327|0.04|10570339|0.04
10\n2000\ng++v6.3.0|1738517738924496|0.04|35647953|0.049|44431859|0.049|11950151|0.04|9050053|0.04|10391457|0.04
11\n2000\nclangv3.9.1|1702098020865445|0.05|60626221|0.049|1298874575|0.048|11193116|0.049|10218693|0.048|12500133|0.048
12\n2043\ng++v6.3.0|1589492857827628|0.046|36589688|0.049|46227912|0.05|12392650|0.049|9104783|0.048
13\n2079\ng++v5.4.0|1585167594436782|0.049|31805141|0.049|44487759|0.049|11983584|0.048|8312979|0.049|9608800|0.05
14\n2079\ng++v6.3.0|1478833488861728|0.048|34487957|0.049|44763029|0.049|12083602|0.049|8637290|0.048|10246996|0.049
15\n2079\ng++v7.1.0|1545258818609558|0.046|30908086|0.048|38983320|0.05|12775608|0.049|9288122|0.048|10417874|0.048
16\n2157\ng++v7.2.0|1642404810077385|0.046|33695405|0.049|38256959|0.049|12030568|0.049|9199284|0.049|10064411|0.048
17\n2250\nGNUv7.3.0|1641338494668447|0.05|31947713|0.049|44033471|0.049|10172969|0.049|7902945|0.05|8667530|0.049
18\n2278\nGNUv8.1.0|2129063128010462|0.049|31431723|0.049|111409656|0.048|11389750|0.048|8413731|0.049|10273550|0.048
19\n2385\nGNUv8.2.0|1904860323798630|0.049|34977591|0.05|40211237|0.049|17397988|0.048|12246171|0.049|13251095|0.048
20\n2397\nGNUv8.3.0|1921640561720321|0.048|97847887|0.05|98554313|0.05|17752733|0.048|16424562|0.048|16289892|0.048
21\n2995\nGNUv9.1.0|1998110355253212|0.05|65008674|0.05|98626124|0.048|16289540|0.048|11082971|0.049|15881880|0.049
22\n2995\nGNUv9.2.0|2108825031131812|0.048|64014784|0.049|100115740|0.05|16192412|0.05|12246293|0.048|15624408|0.049
23\n2995\nGNUv9.3.0|2134353741496598|0.048|65837565|0.049|98273102|0.049|15799509|0.049|12588613|0.049|16056571|0.048
24\n2995\nGNUv10.1.0|2163018854569305|0.05|64161354|0.05|95230117|0.05|16243620|0.048|12407982|0.048|15234984|0.049
25\n2250\nClangv5.0.1|1577963411053255|0.049|49615947|0.048|1693931004613772|0.05|9365416|0.049|8675348|0.049|10219568|0.05
26\n2250\nClangv6.0.0|1490770819168491|0.048|52235611|0.049|1470066247035063|0.046|9518531|0.049|8843361|0.049|10242665|0.048
27\n2397\nClangv7.0.1|2056541853610843|0.047|1958424188408228|0.05|1958272997122865|0.05|15517600|0.049|17634628|0.048|17635305|0.048
28\n2397\nClangv8.0.0|1929186514530481|0.049|50613672|0.049|48851581|0.049|18336887|0.049|13429460|0.048|13500241|0.048
29\n2995\nClangv9.0.1|2101830292254067|0.046|70069322|0.048|80604920|0.049|16575642|0.049|12890210|0.049|13661361|0.05
