Build|std::unique_ptr|% ave.dev.|boost::unique_ptr|% ave.dev.|jmmcg::unique_ptr<simple pointer swaps>|% ave.dev.|jmmcg::unique_ptr<atomic pointer swaps>|% ave.dev.|Mean rate (dtors/sec).
1\n1713\ng++v4.8.4\nboostv1.56|998581097|0.04|||998499436|0.04|998522701|0.04
2\n1732\ng++v4.8.4\nboostv1.56|998375986|0.04|||998360318|0.04|998357947|0.04
3\n1782\ng++v4.8.5\nboostv1.55\nNoSymbols|998381723|0.04|||998320003|0.04|998397365|0.04
4\n2079\ng++v5.4.0\nboostv1.63|997458883|0.048|997457972|0.048|997404853|0.048|997426171|0.048
5\n2079\ng++v6.3.0|997720005|0.048|997811495|0.048|997759344|0.048|997765506|0.048
6\n2079\ng++v7.1.0|997480254|0.048|997479710|0.048|997473564|0.048|997411025|0.048
7\n2278\nGNUv8.1.0|997550792|0.048|997605302|0.048|997641323|0.048|997580197|0.048
8\n2385\nGNUv8.2.0|997312515|0.048|997302582|0.048|997376009|0.048|997405830|0.048
9\n2397\nGNUv8.3.0|997428559|0.048|997318689|0.048|997289296|0.048|997358001|0.048
10\n2250\nClangv5.0.1|997829869|0.05|997876917|0.048|997998786|0.048|997930965|0.048
11\n2250\nClangv6.0.0|997309197|0.048|997317716|0.048|997441375|0.048|997378359|0.048
12\n2397\nClangv7.0.1|997377895|0.048|997335236|0.048|997323409|0.048|997354203|0.048
13\n2397\nClangv8.0.0|997441390|0.048|997345668|0.048|997356093|0.048|997461331|0.048
