Build|unordered_tuple|% ave.dev.|unordered_map|% ave.dev.|Mean rate (operations/sec).
1\n2199\ng++v7.2.0|91126014|0.01|82273463|0.01
2\n2278\nGNUv8.1.0|155778756|0.02|82323143|0.02
3\n2385\nGNUv8.2.0|166178561|0.022|80903151|0.02
4\n2397\nGNUv8.3.0|151657604|0.02|84197413|0.02
5\n2250\nClangv5.0.1|197206073|0.02|80804309|0.02
6\n2250\nClangv6.0.0|201499103|0.02|77392956|0.02
7\n2397\nClangv7.0.1|185056810|0.02|81014261|0.02
8\n2397\nClangv8.0.0|199873916|0.02|82308013|0.02
